<svg width="40" height="40" viewBox="0 0 40 40" fill="none" xmlns="http://www.w3.org/2000/svg">
<rect width="40" height="40" rx="8" fill="#5676C8"/>
<path fill-rule="evenodd" clip-rule="evenodd" d="M14.4704 10.0017L14.4971 10.0034C15.021 10.0469 15.476 10.3072 15.8913 10.713C16.6807 11.484 18.3757 13.7337 18.5036 14.3459C18.6453 15.0289 18.4938 15.4725 18.0424 16.2572L17.933 16.4506C17.7258 16.829 17.6942 16.9852 17.7583 17.1641C18.7439 19.5763 20.4259 21.258 22.8106 22.232C23.0364 22.3138 23.2069 22.2669 23.6842 21.9931L23.9332 21.8522C24.6042 21.4842 25.0294 21.3679 25.6565 21.4985C26.2666 21.6264 28.5176 23.3224 29.2873 24.1108C29.6926 24.5257 29.9535 24.9816 29.999 25.5399C30.0469 26.8972 28.3908 28.8082 27.3805 29.3828C26.2317 30.2046 24.7737 30.191 23.139 29.4301C18.8641 27.6513 12.325 21.1539 10.5824 16.8843L10.4781 16.6455C9.81637 15.064 9.83071 13.6977 10.589 12.6676C11.2809 11.5218 13.1463 9.94049 14.4704 10.0017ZM14.3896 11.464L14.3015 11.4685C13.6219 11.5588 12.259 12.7321 11.8052 13.4783L11.7268 13.595C11.3358 14.232 11.3811 15.1069 11.9254 16.3047L12.0295 16.5482C13.785 20.4882 19.8633 26.4822 23.7284 28.0911L23.9412 28.1858C25.0595 28.6598 25.906 28.6388 26.5913 28.1528L26.642 28.1202C26.8541 27.9729 27.3431 27.5285 27.7198 27.0938C28.2489 26.4833 28.5486 25.9239 28.5389 25.6262C28.5283 25.4988 28.4301 25.3271 28.2407 25.1332C27.6685 24.5472 25.5874 22.9791 25.3574 22.9309C25.1399 22.8856 24.9614 22.9465 24.4732 23.2273L24.2276 23.3652C23.5084 23.7531 23.0014 23.8573 22.2851 23.5973C19.5091 22.4643 17.5383 20.4938 16.3933 17.6898C16.1221 16.9401 16.2681 16.4097 16.7397 15.5876L16.8521 15.3899C17.0663 15.0031 17.1117 14.8389 17.0713 14.6442C17.023 14.4129 15.4559 12.333 14.8691 11.7599C14.6748 11.57 14.504 11.4723 14.3762 11.4617L14.3896 11.464Z" fill="white"/>
</svg>
